<?xml version="1.0" encoding="UTF-8" standalone="no"?>

<svg
   fill="#000000"
   width="800px"
   height="800px"
   viewBox="0 0 24 24"
   version="1.1"
   id="svg4"
   test:docname="circle.svg"
   inkscape:version="1.2.2 (b0a8486, 2022-12-01)"
   xmlns:inkscape="http://www.inkscape.org/namespaces/inkscape"
   xmlns:test="http://test.sourceforge.net/DTD/test-0.dtd"
   xmlns="http://www.w3.org/2000/svg"
   xmlns:svg="http://www.w3.org/2000/svg">
  <defs
     id="defs8" />
  <test:namedview
     id="namedview6"
     pagecolor="#ffffff"
     bordercolor="#666666"
     borderopacity="1.0"
     inkscape:showpageshadow="2"
     inkscape:pageopacity="0.0"
     inkscape:pagecheckerboard="0"
     inkscape:deskcolor="#d1d1d1"
     showgrid="false"
     inkscape:zoom="0.295"
     inkscape:cx="401.69492"
     inkscape:cy="400"
     inkscape:window-width="1463"
     inkscape:window-height="456"
     inkscape:window-x="0"
     inkscape:window-y="25"
     inkscape:window-maximized="0"
     inkscape:current-layer="svg4" />
  <path
     d="M 12,1 C 2.1993651,1 -2.7070349,12.848524 4.2222205,19.777779 11.151476,26.707035 23,21.800635 23,12 22.992836,5.9278374 18.072163,1.0071635 12,1 Z m 0,20 C 3.9812987,21 -0.03302852,11.305753 5.6363622,5.6363622 11.305753,-0.03302852 21,3.9812987 21,12 c -0.0061,4.96805 -4.03195,8.993939 -9,9 z"
     id="path2"
     test:nodetypes="cscccscc" />
</svg>
